<?xml version="1.0" encoding="utf-8"?>
<!-- Generated by IcoMoon.io -->
<!DOCTYPE svg PUBLIC "-//W3C//DTD SVG 1.1//EN" "http://www.w3.org/Graphics/SVG/1.1/DTD/svg11.dtd">
<svg version="1.1" xmlns="http://www.w3.org/2000/svg" xmlns:xlink="http://www.w3.org/1999/xlink" width="32" height="32" viewBox="0 0 32 32">
<g id="icomoon-ignore">
</g>
<path d="M22 26.004l-12-0.004v-8l-10 0.001v10.001l32-0.003 0-9.999-10-0.001v8.004zM0 29.995h32v2.005h-32v-2.005zM16 0.251l-11.854 11.77h23.542l-11.688-11.77zM20 11.294l0.010 12.706-8 0.010-0.010-12.716h8z" fill="#000000"></path>
</svg>
